mips_pipeline_trace.vcd
$date
     May 19, 2025       21:18:42
$end

$version
 SystemC 2.3.4-Accellera --- May  6 2025 23:35:20
$end

$timescale
     1 ps
$end

$scope module SystemC $end
$var wire    1  aaaaa  clock       $end
$var wire    1  aaaab  reset       $end
$var wire   32  aaaac  pc [31:0]  $end
$var wire   32  aaaad  if_id_instruction [31:0]  $end
$var wire   32  aaaae  ex_mem_alu_result [31:0]  $end
$var wire   32  aaaaf  mem_wb_alu_result [31:0]  $end
$var wire   32  aaaag  reg_1 [31:0]  $end
$var wire   32  aaaah  reg_2 [31:0]  $end
$var wire   32  aaaai  reg_3 [31:0]  $end
$upscope $end
$enddefinitions  $end

$comment
All initial values are dumped below at time 0 sec = 0 timescale units.
$end

$dumpvars
1aaaaa
1aaaab
b0 aaaac
b0 aaaad
b0 aaaae
b0 aaaaf
b0 aaaag
b0 aaaah
b0 aaaai
$end

#5000
0aaaaa

#10000
1aaaaa

#15000
0aaaaa

#20000
1aaaaa
0aaaab
b100 aaaac
b100000000000010000000000000101 aaaad

#25000
0aaaaa

#30000
1aaaaa
b1000 aaaac

#35000
0aaaaa

#40000
1aaaaa
b1100 aaaac
b100000000000100000000000001010 aaaad
b101 aaaae

#45000
0aaaaa

#50000
1aaaaa
b10000 aaaac
b10000000000001111111111111110 aaaad
b101 aaaaf

#55000
0aaaaa
b101 aaaag

#60000
1aaaaa
b10100 aaaac
b0 aaaad
b1010 aaaae

#65000
0aaaaa

#70000
1aaaaa
b11000 aaaac
b0 aaaae
b1010 aaaaf

#75000
0aaaaa
b1010 aaaah

#80000
1aaaaa
b11100 aaaac
b0 aaaaf

#85000
0aaaaa

#90000
1aaaaa
b100000 aaaac

#95000
0aaaaa

#100000
1aaaaa
b100100 aaaac

#105000
0aaaaa

#110000
1aaaaa
b101000 aaaac

